{
    "reference_execution_time_[s]": 54,
    "calculation_target": "d",
    "calculation_method": "fbts",
    "trajectories_count": 1e5,
    "relative_tolerance": 0,
    "system_hamiltonian_[1/cm]": [
        [100, 100],
        [100, 0]
    ],
    "energy_disorder_[1/cm]": [0, 0],
    "transition_dipole_moments_[D]": [
        [1, 0, 0],
        [0, 1, 0]
    ],
    "static_dipole_moments_[D]": [
        [0, 0, 0],
        [1.5, 0, 0],
        [0, 1.5, 0]
    ],
    "stark_field_strength_[MV/cm]": 3,
    "should_use_J_eff": true,
    "should_read_RDM": false,
    "excited_state_RDM": [0.280651,-0.000000,-0.099904,0.000000,-0.099904,-0.000000,0.719349,-0.000000],
    "spectral_density": {
        "type": "Debye",
        "reorganisation_energy": {
            "base_value_[1/cm]": 50,
            "coefficients": [1, 1]
        },
        "relaxation_constant_[1/cm]": 53,
        "discretisation_is_uniform": true,
        "oscillators_count": 100,
        "cutoff_frequency_[1/cm]": 1000.0
    },
    "temperature_[K]": 300,
    "evolution_duration_[ps]": 0.5,
    "evolution_points_count": 0,
    "response_duration_[ps]": 0.15,
    "response_points_count": 0
}
